Main-Version-In-Use(T4)/Motor_Driver/simulation/qsim/Motor_Driver.msim.vcd
$comment
	File created using the following command:
		vcd file Motor_Driver.msim.vcd -direction
$end
$date
	Thu Jan 02 02:52:42 2025
$end
$version
	ModelSim Version 2020.1
$end
$timescale
	1ps
$end

$scope module Motor_Driver_vlg_vec_tst $end
$var reg 1 ! clk $end
$var wire 1 " ENA $end
$var wire 1 # IN1 $end
$var wire 1 $ IN2 $end
$var wire 1 % led1 $end
$var wire 1 & led2 $end
$var wire 1 ' led3 $end

$scope module i1 $end
$var wire 1 ( gnd $end
$var wire 1 ) vcc $end
$var wire 1 * unknown $end
$var tri1 1 + devclrn $end
$var tri1 1 , devpor $end
$var tri1 1 - devoe $end
$var wire 1 . ENA~output_o $end
$var wire 1 / IN1~output_o $end
$var wire 1 0 IN2~output_o $end
$var wire 1 1 led1~output_o $end
$var wire 1 2 led2~output_o $end
$var wire 1 3 led3~output_o $end
$var wire 1 4 clk~input_o $end
$var wire 1 5 inst|Add0~2_combout $end
$var wire 1 6 inst|Add0~1_combout $end
$var wire 1 7 inst|Equal0~0_combout $end
$var wire 1 8 inst|counter~3_combout $end
$var wire 1 9 inst|counter~1_combout $end
$var wire 1 : inst|counter~2_combout $end
$var wire 1 ; inst|Add0~0_combout $end
$var wire 1 < inst|counter~0_combout $end
$var wire 1 = inst|WideNor0~0_combout $end
$var wire 1 > inst|clk_1MHz~0_combout $end
$var wire 1 ? inst|clk_1MHz~q $end
$var wire 1 @ inst2|Add0~0_combout $end
$var wire 1 A inst2|LessThan0~0_combout $end
$var wire 1 B inst2|LessThan0~1_combout $end
$var wire 1 C inst2|pwm_counter~11_combout $end
$var wire 1 D inst2|Add0~1 $end
$var wire 1 E inst2|Add0~2_combout $end
$var wire 1 F inst2|pwm_counter~10_combout $end
$var wire 1 G inst2|Add0~3 $end
$var wire 1 H inst2|Add0~4_combout $end
$var wire 1 I inst2|pwm_counter~9_combout $end
$var wire 1 J inst2|Add0~5 $end
$var wire 1 K inst2|Add0~6_combout $end
$var wire 1 L inst2|pwm_counter~4_combout $end
$var wire 1 M inst2|pwm_counter~5_combout $end
$var wire 1 N inst2|Add0~7 $end
$var wire 1 O inst2|Add0~8_combout $end
$var wire 1 P inst2|pwm_counter~3_combout $end
$var wire 1 Q inst2|Add0~9 $end
$var wire 1 R inst2|Add0~10_combout $end
$var wire 1 S inst2|pwm_counter~8_combout $end
$var wire 1 T inst2|Add0~11 $end
$var wire 1 U inst2|Add0~12_combout $end
$var wire 1 V inst2|pwm_counter~7_combout $end
$var wire 1 W inst2|Add0~13 $end
$var wire 1 X inst2|Add0~14_combout $end
$var wire 1 Y inst2|pwm_counter~6_combout $end
$var wire 1 Z inst2|Add0~15 $end
$var wire 1 [ inst2|Add0~16_combout $end
$var wire 1 \ inst2|pwm_counter~2_combout $end
$var wire 1 ] inst2|Add0~17 $end
$var wire 1 ^ inst2|Add0~18_combout $end
$var wire 1 _ inst2|pwm_counter~1_combout $end
$var wire 1 ` inst2|Add0~19 $end
$var wire 1 a inst2|Add0~20_combout $end
$var wire 1 b inst2|pwm_counter~0_combout $end
$var wire 1 c inst2|LessThan1~0_combout $end
$var wire 1 d inst2|LessThan1~1_combout $end
$var wire 1 e inst2|LessThan1~2_combout $end
$var wire 1 f inst2|counter[0]~105_combout $end
$var wire 1 g inst2|counter[1]~35_combout $end
$var wire 1 h inst2|counter[1]~36 $end
$var wire 1 i inst2|counter[2]~37_combout $end
$var wire 1 j inst2|counter[2]~38 $end
$var wire 1 k inst2|counter[3]~39_combout $end
$var wire 1 l inst2|Equal2~0_combout $end
$var wire 1 m inst2|counter[3]~40 $end
$var wire 1 n inst2|counter[4]~41_combout $end
$var wire 1 o inst2|counter[4]~42 $end
$var wire 1 p inst2|counter[5]~43_combout $end
$var wire 1 q inst2|counter[5]~44 $end
$var wire 1 r inst2|counter[6]~45_combout $end
$var wire 1 s inst2|counter[6]~46 $end
$var wire 1 t inst2|counter[7]~47_combout $end
$var wire 1 u inst2|Equal2~1_combout $end
$var wire 1 v inst2|counter[7]~48 $end
$var wire 1 w inst2|counter[8]~49_combout $end
$var wire 1 x inst2|counter[8]~50 $end
$var wire 1 y inst2|counter[9]~51_combout $end
$var wire 1 z inst2|counter[9]~52 $end
$var wire 1 { inst2|counter[10]~53_combout $end
$var wire 1 | inst2|counter[10]~54 $end
$var wire 1 } inst2|counter[11]~55_combout $end
$var wire 1 ~ inst2|Equal2~2_combout $end
$var wire 1 !! inst2|counter[11]~56 $end
$var wire 1 "! inst2|counter[12]~57_combout $end
$var wire 1 #! inst2|counter[12]~58 $end
$var wire 1 $! inst2|counter[13]~59_combout $end
$var wire 1 %! inst2|counter[13]~60 $end
$var wire 1 &! inst2|counter[14]~61_combout $end
$var wire 1 '! inst2|counter[14]~62 $end
$var wire 1 (! inst2|counter[15]~63_combout $end
$var wire 1 )! inst2|Equal2~3_combout $end
$var wire 1 *! inst2|Equal2~4_combout $end
$var wire 1 +! inst2|counter[15]~64 $end
$var wire 1 ,! inst2|counter[16]~65_combout $end
$var wire 1 -! inst2|counter[16]~66 $end
$var wire 1 .! inst2|counter[17]~67_combout $end
$var wire 1 /! inst2|counter[17]~68 $end
$var wire 1 0! inst2|counter[18]~69_combout $end
$var wire 1 1! inst2|counter[18]~70 $end
$var wire 1 2! inst2|counter[19]~71_combout $end
$var wire 1 3! inst2|counter[19]~72 $end
$var wire 1 4! inst2|counter[20]~73_combout $end
$var wire 1 5! inst2|counter[20]~74 $end
$var wire 1 6! inst2|counter[21]~75_combout $end
$var wire 1 7! inst2|counter[21]~76 $end
$var wire 1 8! inst2|counter[22]~77_combout $end
$var wire 1 9! inst2|counter[22]~78 $end
$var wire 1 :! inst2|counter[23]~79_combout $end
$var wire 1 ;! inst2|counter[23]~80 $end
$var wire 1 <! inst2|counter[24]~81_combout $end
$var wire 1 =! inst2|counter[24]~82 $end
$var wire 1 >! inst2|counter[25]~83_combout $end
$var wire 1 ?! inst2|counter[25]~84 $end
$var wire 1 @! inst2|counter[26]~85_combout $end
$var wire 1 A! inst2|counter[26]~86 $end
$var wire 1 B! inst2|counter[27]~87_combout $end
$var wire 1 C! inst2|counter[27]~88 $end
$var wire 1 D! inst2|counter[28]~89_combout $end
$var wire 1 E! inst2|counter[28]~90 $end
$var wire 1 F! inst2|counter[29]~91_combout $end
$var wire 1 G! inst2|counter[29]~92 $end
$var wire 1 H! inst2|counter[30]~93_combout $end
$var wire 1 I! inst2|counter[30]~94 $end
$var wire 1 J! inst2|counter[31]~95_combout $end
$var wire 1 K! inst2|counter[31]~96 $end
$var wire 1 L! inst2|counter[32]~97_combout $end
$var wire 1 M! inst2|counter[32]~98 $end
$var wire 1 N! inst2|counter[33]~99_combout $end
$var wire 1 O! inst2|counter[33]~100 $end
$var wire 1 P! inst2|counter[34]~101_combout $end
$var wire 1 Q! inst2|counter[34]~102 $end
$var wire 1 R! inst2|counter[35]~103_combout $end
$var wire 1 S! inst2|Equal2~5_combout $end
$var wire 1 T! inst2|Equal2~6_combout $end
$var wire 1 U! inst2|Equal2~7_combout $end
$var wire 1 V! inst2|Equal2~8_combout $end
$var wire 1 W! inst2|Equal2~9_combout $end
$var wire 1 X! inst2|Equal2~10_combout $end
$var wire 1 Y! inst2|Equal2~11_combout $end
$var wire 1 Z! inst2|Selector0~0_combout $end
$var wire 1 [! inst2|state.0000~q $end
$var wire 1 \! inst2|Selector2~0_combout $end
$var wire 1 ]! inst2|state.0010~q $end
$var wire 1 ^! inst2|Selector1~0_combout $end
$var wire 1 _! inst2|state.0001~q $end
$var wire 1 `! inst2|IN1~q $end
$var wire 1 a! inst2|IN2~0_combout $end
$var wire 1 b! inst2|IN2~q $end
$var wire 1 c! inst2|led1~0_combout $end
$var wire 1 d! inst2|led1~q $end
$var wire 1 e! inst2|led2~q $end
$var wire 1 f! inst2|led3~q $end
$var wire 1 g! inst2|counter [35] $end
$var wire 1 h! inst2|counter [34] $end
$var wire 1 i! inst2|counter [33] $end
$var wire 1 j! inst2|counter [32] $end
$var wire 1 k! inst2|counter [31] $end
$var wire 1 l! inst2|counter [30] $end
$var wire 1 m! inst2|counter [29] $end
$var wire 1 n! inst2|counter [28] $end
$var wire 1 o! inst2|counter [27] $end
$var wire 1 p! inst2|counter [26] $end
$var wire 1 q! inst2|counter [25] $end
$var wire 1 r! inst2|counter [24] $end
$var wire 1 s! inst2|counter [23] $end
$var wire 1 t! inst2|counter [22] $end
$var wire 1 u! inst2|counter [21] $end
$var wire 1 v! inst2|counter [20] $end
$var wire 1 w! inst2|counter [19] $end
$var wire 1 x! inst2|counter [18] $end
$var wire 1 y! inst2|counter [17] $end
$var wire 1 z! inst2|counter [16] $end
$var wire 1 {! inst2|counter [15] $end
$var wire 1 |! inst2|counter [14] $end
$var wire 1 }! inst2|counter [13] $end
$var wire 1 ~! inst2|counter [12] $end
$var wire 1 !" inst2|counter [11] $end
$var wire 1 "" inst2|counter [10] $end
$var wire 1 #" inst2|counter [9] $end
$var wire 1 $" inst2|counter [8] $end
$var wire 1 %" inst2|counter [7] $end
$var wire 1 &" inst2|counter [6] $end
$var wire 1 '" inst2|counter [5] $end
$var wire 1 (" inst2|counter [4] $end
$var wire 1 )" inst2|counter [3] $end
$var wire 1 *" inst2|counter [2] $end
$var wire 1 +" inst2|counter [1] $end
$var wire 1 ," inst2|counter [0] $end
$var wire 1 -" inst2|pwm_counter [10] $end
$var wire 1 ." inst2|pwm_counter [9] $end
$var wire 1 /" inst2|pwm_counter [8] $end
$var wire 1 0" inst2|pwm_counter [7] $end
$var wire 1 1" inst2|pwm_counter [6] $end
$var wire 1 2" inst2|pwm_counter [5] $end
$var wire 1 3" inst2|pwm_counter [4] $end
$var wire 1 4" inst2|pwm_counter [3] $end
$var wire 1 5" inst2|pwm_counter [2] $end
$var wire 1 6" inst2|pwm_counter [1] $end
$var wire 1 7" inst2|pwm_counter [0] $end
$var wire 1 8" inst|counter [4] $end
$var wire 1 9" inst|counter [3] $end
$var wire 1 :" inst|counter [2] $end
$var wire 1 ;" inst|counter [1] $end
$var wire 1 <" inst|counter [0] $end
$upscope $end
$upscope $end
$enddefinitions $end
#0
$dumpvars
1!
0"
0#
0$
0%
0&
0'
0(
1)
x*
1+
1,
1-
0.
0/
00
01
02
03
14
05
06
07
18
09
0:
0;
0<
0=
1>
0?
0@
1A
1B
1C
1D
0E
1F
0G
0H
1I
1J
0K
1L
1M
0N
0O
1P
1Q
0R
1S
0T
0U
1V
1W
0X
1Y
0Z
0[
1\
1]
0^
1_
0`
0a
1b
0c
0d
0e
1f
0g
0h
0i
1j
0k
0l
0m
0n
1o
0p
0q
0r
1s
0t
0u
0v
0w
1x
0y
0z
0{
1|
0}
1~
0!!
0"!
1#!
0$!
0%!
0&!
1'!
0(!
1)!
0*!
0+!
0,!
1-!
0.!
0/!
00!
11!
02!
03!
04!
15!
06!
07!
08!
19!
0:!
0;!
0<!
1=!
0>!
0?!
0@!
1A!
0B!
0C!
0D!
1E!
0F!
0G!
0H!
1I!
0J!
0K!
0L!
1M!
0N!
0O!
0P!
1Q!
0R!
1S!
1T!
1U!
1V!
1W!
1X!
0Y!
0Z!
0[!
0\!
0]!
0^!
0_!
0`!
1a!
0b!
1c!
0d!
0e!
0f!
0,"
0+"
0*"
0)"
0("
0'"
0&"
0%"
0$"
0#"
0""
0!"
0~!
0}!
0|!
0{!
0z!
0y!
0x!
0w!
0v!
0u!
0t!
0s!
0r!
0q!
0p!
0o!
0n!
0m!
0l!
0k!
0j!
0i!
0h!
0g!
07"
06"
05"
04"
03"
02"
01"
00"
0/"
0."
0-"
0<"
0;"
0:"
09"
08"
$end
#5000
0!
04
#10000
1!
14
1<"
1?
1=
19
1:
08
15
0>
1>
0:
1,"
1-"
1."
1/"
10"
11"
12"
13"
14"
15"
16"
17"
1d!
1b!
10
11
1a
1c
1`
1^
0]
1[
1d
1Z
1X
0W
1U
1T
1R
0Q
1O
1N
1K
0J
1H
1G
1E
0D
1@
1%
1$
1g
0f
0a
0B
0^
0[
0A
0X
0U
0R
0O
0K
0H
0E
0b
0_
0\
0Y
0V
0S
0P
0M
0I
0F
0C
1e
1.
1B
1A
1"
1b
1_
1\
1Y
1V
1S
1P
1M
1I
1F
#15000
0!
04
#20000
1!
14
0<"
1;"
18
#25000
0!
04
#30000
1!
14
1<"
08
16
05
#35000
0!
04
#40000
1!
14
0<"
1:"
0;"
18
#45000
0!
04
#50000
1!
14
1<"
08
15
#55000
0!
04
#60000
1!
14
0<"
1;"
18
#65000
0!
04
#70000
1!
14
1<"
09
08
06
05
1:
#75000
0!
04
#80000
1!
14
19"
0<"
0:"
0;"
17
18
#85000
0!
04
#90000
1!
14
1<"
19
07
0:
08
15
1:
#95000
0!
04
#100000
1!
14
0<"
1;"
18
#105000
0!
04
#110000
1!
14
1<"
08
16
05
#115000
0!
04
#120000
1!
14
0<"
1:"
0;"
18
#125000
0!
04
#130000
1!
14
1<"
08
15
#135000
0!
04
#140000
1!
14
0<"
1;"
18
#145000
0!
04
#150000
1!
14
1<"
1;
09
08
06
05
1<
0:
#155000
0!
04
#160000
1!
14
18"
09"
0<"
0:"
0;"
0=
0;
0<
18
1<
#165000
0!
04
#170000
1!
14
1<"
1=
19
1:
08
15
0:
#175000
0!
04
#180000
1!
14
0<"
1;"
18
#185000
0!
04
#190000
1!
14
1<"
08
16
05
#195000
0!
04
#200000
1!
14
0<"
1:"
0;"
18
#205000
0!
04
#210000
1!
14
1<"
08
15
#215000
0!
04
#220000
1!
14
0<"
1;"
18
#225000
0!
04
#230000
1!
14
1<"
09
08
06
05
1:
#235000
0!
04
#240000
1!
14
19"
0<"
0:"
0;"
17
0:
18
0<
08
#245000
0!
04
#250000
1!
14
08"
09"
0=
07
18
0>
#255000
0!
04
#260000
1!
14
1<"
0?
1=
19
1:
08
15
1>
0>
0:
#265000
0!
04
#270000
1!
14
0<"
1;"
18
#275000
0!
04
#280000
1!
14
1<"
08
16
05
#285000
0!
04
#290000
1!
14
0<"
1:"
0;"
18
#295000
0!
04
#300000
1!
14
1<"
08
15
#305000
0!
04
#310000
1!
14
0<"
1;"
18
#315000
0!
04
#320000
1!
14
1<"
09
08
06
05
1:
#325000
0!
04
#330000
1!
14
19"
0<"
0:"
0;"
17
18
#335000
0!
04
#340000
1!
14
1<"
19
07
0:
08
15
1:
#345000
0!
04
#350000
1!
14
0<"
1;"
18
#355000
0!
04
#360000
1!
14
1<"
08
16
05
#365000
0!
04
#370000
1!
14
0<"
1:"
0;"
18
#375000
0!
04
#380000
1!
14
1<"
08
15
#385000
0!
04
#390000
1!
14
0<"
1;"
18
#395000
0!
04
#400000
1!
14
1<"
1;
09
08
06
05
1<
0:
#405000
0!
04
#410000
1!
14
18"
09"
0<"
0:"
0;"
0=
0;
0<
18
1<
#415000
0!
04
#420000
1!
14
1<"
1=
19
1:
08
15
0:
#425000
0!
04
#430000
1!
14
0<"
1;"
18
#435000
0!
04
#440000
1!
14
1<"
08
16
05
#445000
0!
04
#450000
1!
14
0<"
1:"
0;"
18
#455000
0!
04
#460000
1!
14
1<"
08
15
#465000
0!
04
#470000
1!
14
0<"
1;"
18
#475000
0!
04
#480000
1!
14
1<"
09
08
06
05
1:
#485000
0!
04
#490000
1!
14
19"
0<"
0:"
0;"
17
0:
18
0<
08
#495000
0!
04
#500000
1!
14
08"
09"
0=
07
18
1>
#505000
0!
04
#510000
1!
14
1<"
1?
1=
19
1:
08
15
0>
1>
0:
1+"
0,"
07"
1D
0@
1f
1E
1C
0F
#515000
0!
04
#520000
1!
14
0<"
1;"
18
#525000
0!
04
#530000
1!
14
1<"
08
16
05
#535000
0!
04
#540000
1!
14
0<"
1:"
0;"
18
#545000
0!
04
#550000
1!
14
1<"
08
15
#555000
0!
04
#560000
1!
14
0<"
1;"
18
#565000
0!
04
#570000
1!
14
1<"
09
08
06
05
1:
#575000
0!
04
#580000
1!
14
19"
0<"
0:"
0;"
17
18
#585000
0!
04
#590000
1!
14
1<"
19
07
0:
08
15
1:
#595000
0!
04
#600000
1!
14
0<"
1;"
18
#605000
0!
04
#610000
1!
14
1<"
08
16
05
#615000
0!
04
#620000
1!
14
0<"
1:"
0;"
18
#625000
0!
04
#630000
1!
14
1<"
08
15
#635000
0!
04
#640000
1!
14
0<"
1;"
18
#645000
0!
04
#650000
1!
14
1<"
1;
09
08
06
05
1<
0:
#655000
0!
04
#660000
1!
14
18"
09"
0<"
0:"
0;"
0=
0;
0<
18
1<
#665000
0!
04
#670000
1!
14
1<"
1=
19
1:
08
15
0:
#675000
0!
04
#680000
1!
14
0<"
1;"
18
#685000
0!
04
#690000
1!
14
1<"
08
16
05
#695000
0!
04
#700000
1!
14
0<"
1:"
0;"
18
#705000
0!
04
#710000
1!
14
1<"
08
15
#715000
0!
04
#720000
1!
14
0<"
1;"
18
#725000
0!
04
#730000
1!
14
1<"
09
08
06
05
1:
#735000
0!
04
#740000
1!
14
19"
0<"
0:"
0;"
17
0:
18
0<
08
#745000
0!
04
#750000
1!
14
08"
09"
0=
07
18
0>
#755000
0!
04
#760000
1!
14
1<"
0?
1=
19
1:
08
15
1>
0>
0:
#765000
0!
04
#770000
1!
14
0<"
1;"
18
#775000
0!
04
#780000
1!
14
1<"
08
16
05
#785000
0!
04
#790000
1!
14
0<"
1:"
0;"
18
#795000
0!
04
#800000
1!
14
1<"
08
15
#805000
0!
04
#810000
1!
14
0<"
1;"
18
#815000
0!
04
#820000
1!
14
1<"
09
08
06
05
1:
#825000
0!
04
#830000
1!
14
19"
0<"
0:"
0;"
17
18
#835000
0!
04
#840000
1!
14
1<"
19
07
0:
08
15
1:
#845000
0!
04
#850000
1!
14
0<"
1;"
18
#855000
0!
04
#860000
1!
14
1<"
08
16
05
#865000
0!
04
#870000
1!
14
0<"
1:"
0;"
18
#875000
0!
04
#880000
1!
14
1<"
08
15
#885000
0!
04
#890000
1!
14
0<"
1;"
18
#895000
0!
04
#900000
1!
14
1<"
1;
09
08
06
05
1<
0:
#905000
0!
04
#910000
1!
14
18"
09"
0<"
0:"
0;"
0=
0;
0<
18
1<
#915000
0!
04
#920000
1!
14
1<"
1=
19
1:
08
15
0:
#925000
0!
04
#930000
1!
14
0<"
1;"
18
#935000
0!
04
#940000
1!
14
1<"
08
16
05
#945000
0!
04
#950000
1!
14
0<"
1:"
0;"
18
#955000
0!
04
#960000
1!
14
1<"
08
15
#965000
0!
04
#970000
1!
14
0<"
1;"
18
#975000
0!
04
#980000
1!
14
1<"
09
08
06
05
1:
#985000
0!
04
#990000
1!
14
19"
0<"
0:"
0;"
17
0:
18
0<
08
#995000
0!
04
