Main-Version-In-Use(T1)/eb_3022_task1a/t1a_fs_pwm/simulation/qsim/t1a_fs_pwm.msim.vcd
$comment
	File created using the following command:
		vcd file t1a_fs_pwm.msim.vcd -direction
$end
$date
	Sat Sep 07 21:27:43 2024
$end
$version
	ModelSim Version 2020.1
$end
$timescale
	1ps
$end

$scope module frequency_scaler_vlg_vec_tst $end
$var reg 1 ! clk_50MHz $end
$var wire 1 " clk_1MHz $end

$scope module i1 $end
$var wire 1 # gnd $end
$var wire 1 $ vcc $end
$var wire 1 % unknown $end
$var tri1 1 & devclrn $end
$var tri1 1 ' devpor $end
$var tri1 1 ( devoe $end
$var wire 1 ) clk_1MHz~output_o $end
$var wire 1 * clk_50MHz~input_o $end
$var wire 1 + clk_50MHz~inputclkctrl_outclk $end
$var wire 1 , count[0]~7_combout $end
$var wire 1 - count[0]~8 $end
$var wire 1 . count[1]~9_combout $end
$var wire 1 / count[1]~10 $end
$var wire 1 0 count[2]~11_combout $end
$var wire 1 1 count[2]~12 $end
$var wire 1 2 count[3]~13_combout $end
$var wire 1 3 count[3]~14 $end
$var wire 1 4 count[4]~15_combout $end
$var wire 1 5 count[4]~16 $end
$var wire 1 6 count[5]~17_combout $end
$var wire 1 7 count[5]~18 $end
$var wire 1 8 count[6]~19_combout $end
$var wire 1 9 LessThan0~0_combout $end
$var wire 1 : LessThan0~1_combout $end
$var wire 1 ; clk_1MHz~0_combout $end
$var wire 1 < clk_1MHz~reg0_q $end
$var wire 1 = count [6] $end
$var wire 1 > count [5] $end
$var wire 1 ? count [4] $end
$var wire 1 @ count [3] $end
$var wire 1 A count [2] $end
$var wire 1 B count [1] $end
$var wire 1 C count [0] $end
$upscope $end
$upscope $end
$enddefinitions $end
#0
$dumpvars
0!
1"
0#
1$
x%
1&
1'
1(
1)
0*
0+
1,
0-
0.
1/
00
01
02
13
04
05
06
17
08
19
0:
0;
0<
0C
0B
0A
0@
0?
0>
0=
$end
#10000
1!
1*
1+
1C
1-
0,
1.
#20000
0!
0*
0+
#30000
1!
1*
1+
1B
0C
0/
0-
0.
1,
1/
10
1.
00
#40000
0!
0*
0+
#50000
1!
1*
1+
1C
1-
0,
0/
0.
10
#60000
0!
0*
0+
#70000
1!
1*
1+
1A
0B
0C
11
1/
0-
00
1.
1,
01
12
10
0.
02
#80000
0!
0*
0+
#90000
1!
1*
1+
1C
1-
0,
1.
#100000
0!
0*
0+
#110000
1!
1*
1+
1B
0C
0/
0-
0.
1,
11
1/
00
1.
01
12
10
02
#120000
0!
0*
0+
#130000
1!
1*
1+
1C
1-
0,
0/
0.
11
00
12
#140000
0!
0*
0+
#150000
1!
1*
1+
1@
0A
0B
0C
03
01
1/
0-
02
10
1.
1,
13
14
12
00
0.
04
#160000
0!
0*
0+
#170000
1!
1*
1+
1C
09
1-
0,
1.
#180000
0!
0*
0+
#190000
1!
1*
1+
1B
0C
0/
0-
0.
1,
1/
10
1.
00
#200000
0!
0*
0+
#210000
1!
1*
1+
1C
1-
0,
0/
0.
10
#220000
0!
0*
0+
#230000
1!
1*
1+
1A
0B
0C
11
1/
0-
00
1.
1,
03
01
02
10
0.
13
14
12
04
#240000
0!
0*
0+
#250000
1!
1*
1+
1C
1-
0,
1.
#260000
0!
0*
0+
#270000
1!
1*
1+
1B
0C
0/
0-
0.
1,
11
1/
00
1.
03
01
02
10
13
14
12
04
#280000
0!
0*
0+
#290000
1!
1*
1+
1C
1-
0,
0/
0.
11
00
03
02
14
#300000
0!
0*
0+
#310000
1!
1*
1+
1?
0@
0A
0B
0C
1:
15
19
13
01
1/
0-
04
12
10
1.
1,
0:
05
1;
16
14
02
00
0.
0;
06
#320000
0!
0*
0+
#330000
1!
1*
1+
1C
1-
0,
1.
#340000
0!
0*
0+
#350000
1!
1*
1+
1B
0C
0/
0-
0.
1,
1/
10
1.
00
#360000
0!
0*
0+
#370000
1!
1*
1+
1C
1-
0,
0/
0.
10
#380000
0!
0*
0+
#390000
1!
1*
1+
1A
0B
0C
11
1/
0-
00
1.
1,
01
12
10
0.
02
#400000
0!
0*
0+
#410000
1!
1*
1+
1C
1-
0,
1.
#420000
0!
0*
0+
#430000
1!
1*
1+
1B
0C
0/
0-
0.
1,
11
1/
00
1.
01
12
10
02
#440000
0!
0*
0+
#450000
1!
1*
1+
1C
1-
0,
0/
0.
11
00
12
#460000
0!
0*
0+
#470000
1!
1*
1+
1@
0A
0B
0C
03
01
1/
0-
02
10
1.
1,
15
13
04
12
00
0.
05
16
14
06
#480000
0!
0*
0+
#490000
1!
1*
1+
1C
09
1-
0,
1:
1.
1;
#500000
0!
0*
0+
#510000
1!
1*
1+
1<
0?
0@
0C
0)
0:
19
0-
0"
0;
04
02
1,
1;
0.
#520000
0!
0*
0+
#530000
1!
1*
1+
1C
1-
0,
1.
#540000
0!
0*
0+
#550000
1!
1*
1+
1B
0C
0/
0-
0.
1,
1/
10
1.
00
#560000
0!
0*
0+
#570000
1!
1*
1+
1C
1-
0,
0/
0.
10
#580000
0!
0*
0+
#590000
1!
1*
1+
1A
0B
0C
11
1/
0-
00
1.
1,
01
12
10
0.
02
#600000
0!
0*
0+
#610000
1!
1*
1+
1C
1-
0,
1.
#620000
0!
0*
0+
#630000
1!
1*
1+
1B
0C
0/
0-
0.
1,
11
1/
00
1.
01
12
10
02
#640000
0!
0*
0+
#650000
1!
1*
1+
1C
1-
0,
0/
0.
11
00
12
#660000
0!
0*
0+
#670000
1!
1*
1+
1@
0A
0B
0C
03
01
1/
0-
02
10
1.
1,
13
14
12
00
0.
04
#680000
0!
0*
0+
#690000
1!
1*
1+
1C
09
1-
0,
1.
#700000
0!
0*
0+
#710000
1!
1*
1+
1B
0C
0/
0-
0.
1,
1/
10
1.
00
#720000
0!
0*
0+
#730000
1!
1*
1+
1C
1-
0,
0/
0.
10
#740000
0!
0*
0+
#750000
1!
1*
1+
1A
0B
0C
11
1/
0-
00
1.
1,
03
01
02
10
0.
13
14
12
04
#760000
0!
0*
0+
#770000
1!
1*
1+
1C
1-
0,
1.
#780000
0!
0*
0+
#790000
1!
1*
1+
1B
0C
0/
0-
0.
1,
11
1/
00
1.
03
01
02
10
13
14
12
04
#800000
0!
0*
0+
#810000
1!
1*
1+
1C
1-
0,
0/
0.
11
00
03
02
14
#820000
0!
0*
0+
#830000
1!
1*
1+
1?
0@
0A
0B
0C
1:
15
19
13
01
1/
0-
04
12
10
1.
1,
0:
05
0;
16
14
02
00
0.
1;
06
#840000
0!
0*
0+
#850000
1!
1*
1+
1C
1-
0,
1.
#860000
0!
0*
0+
#870000
1!
1*
1+
1B
0C
0/
0-
0.
1,
1/
10
1.
00
#880000
0!
0*
0+
#890000
1!
1*
1+
1C
1-
0,
0/
0.
10
#900000
0!
0*
0+
#910000
1!
1*
1+
1A
0B
0C
11
1/
0-
00
1.
1,
01
12
10
0.
02
#920000
0!
0*
0+
#930000
1!
1*
1+
1C
1-
0,
1.
#940000
0!
0*
0+
#950000
1!
1*
1+
1B
0C
0/
0-
0.
1,
11
1/
00
1.
01
12
10
02
#960000
0!
0*
0+
#970000
1!
1*
1+
1C
1-
0,
0/
0.
11
00
12
#980000
0!
0*
0+
#990000
1!
1*
1+
1@
0A
0B
0C
03
01
1/
0-
02
10
1.
1,
15
13
04
12
00
0.
05
16
14
06
