Not_submissions/programms/Seven_seg_diaplay/simulation/qsim/Seven_seg_display.msim.vcd
$comment
	File created using the following command:
		vcd file Seven_seg_display.msim.vcd -direction
$end
$date
	Thu Aug 29 14:00:16 2024
$end
$version
	ModelSim Version 2020.1
$end
$timescale
	1ps
$end

$scope module seven_segment_vlg_vec_tst $end
$var reg 4 ! bcd [3:0] $end
$var wire 1 " display [6] $end
$var wire 1 # display [5] $end
$var wire 1 $ display [4] $end
$var wire 1 % display [3] $end
$var wire 1 & display [2] $end
$var wire 1 ' display [1] $end
$var wire 1 ( display [0] $end

$scope module i1 $end
$var wire 1 ) gnd $end
$var wire 1 * vcc $end
$var wire 1 + unknown $end
$var tri1 1 , devclrn $end
$var tri1 1 - devpor $end
$var tri1 1 . devoe $end
$var wire 1 / display[0]~output_o $end
$var wire 1 0 display[1]~output_o $end
$var wire 1 1 display[2]~output_o $end
$var wire 1 2 display[3]~output_o $end
$var wire 1 3 display[4]~output_o $end
$var wire 1 4 display[5]~output_o $end
$var wire 1 5 display[6]~output_o $end
$var wire 1 6 bcd[0]~input_o $end
$var wire 1 7 bcd[1]~input_o $end
$var wire 1 8 bcd[2]~input_o $end
$var wire 1 9 bcd[3]~input_o $end
$var wire 1 : WideOr6~0_combout $end
$var wire 1 ; WideOr5~0_combout $end
$var wire 1 < WideOr4~0_combout $end
$var wire 1 = WideOr3~0_combout $end
$var wire 1 > WideOr2~0_combout $end
$var wire 1 ? WideOr1~0_combout $end
$var wire 1 @ WideOr0~0_combout $end
$upscope $end
$upscope $end
$enddefinitions $end
#0
$dumpvars
b0 !
0(
1'
1&
1%
1$
1#
1"
0)
1*
x+
1,
1-
1.
0/
10
11
12
13
14
15
06
07
08
09
0:
0;
0<
0=
0>
0?
0@
$end
#50000
b1 !
16
1@
1=
1<
1;
00
01
02
05
0"
0%
0&
0'
#100000
b11 !
b10 !
06
17
0@
1>
0=
0<
1:
1/
11
12
03
15
1"
0$
1%
1&
1(
#150000
b11 !
16
0>
1<
01
13
1$
0&
#200000
b111 !
b101 !
b100 !
06
07
18
1@
1=
0;
10
02
05
0"
0%
1'
#250000
b101 !
16
0@
1?
0=
12
04
15
1"
0#
1%
#300000
b111 !
b110 !
06
17
0<
11
1&
#350000
b111 !
16
0?
1=
1<
1;
0:
0/
00
01
02
14
1#
0%
0&
0'
0(
#400000
b1111 !
b1011 !
b1001 !
b1000 !
06
07
08
19
0=
0<
0;
1:
1/
10
11
12
1%
1&
1'
1(
#450000
b1001 !
16
1<
01
0&
#500000
b1011 !
b1010 !
06
17
1@
1?
1>
1=
1;
0:
0/
00
02
03
04
05
0"
0#
0$
0%
0'
0(
#550000
b1011 !
16
#600000
b1111 !
b1101 !
b1100 !
06
07
18
#650000
b1101 !
16
#700000
b1111 !
b1110 !
06
17
#750000
b1111 !
16
#800000
b111 !
b11 !
b1 !
b0 !
06
07
08
09
0@
0?
0>
0=
0<
0;
10
11
12
13
14
15
1"
1#
1$
1%
1&
1'
#850000
b1 !
16
1@
1=
1<
1;
00
01
02
05
0"
0%
0&
0'
#900000
b11 !
b10 !
06
17
0@
1>
0=
0<
1:
1/
11
12
03
15
1"
0$
1%
1&
1(
#950000
b11 !
16
0>
1<
01
13
1$
0&
